{
    "data": {
        "id": "a87e6b14-6a38-40da-adbd-dc0eba1c88f0",
        "type": "dids",
        "attributes": {
            "blocked": false,
            "capacity_limit": null,
            "description": null,
            "terminated": false,
            "awaiting_registration": false,
            "created_at": "2019-09-24T12:21:25.657Z",
            "number": "529983870342",
            "expires_at": "2020-04-24T12:22:03.217Z",
            "channels_included_count": 2,
            "pending_removal": true,
            "dedicated_channels_count": 0
        },
        "relationships": {
            "did_group": {
                "links": {
                    "self": "https://api.didww.com/v3/dids/a87e6b14-6a38-40da-adbd-dc0eba1c88f0/relationships/did_group",
                    "related": "https://api.didww.com/v3/dids/a87e6b14-6a38-40da-adbd-dc0eba1c88f0/did_group"
                }
            },
            "order": {
                "links": {
                    "self": "https://api.didww.com/v3/dids/a87e6b14-6a38-40da-adbd-dc0eba1c88f0/relationships/order",
                    "related": "https://api.didww.com/v3/dids/a87e6b14-6a38-40da-adbd-dc0eba1c88f0/order"
                }
            },
            "trunk": {
                "links": {
                    "self": "https://api.didww.com/v3/dids/a87e6b14-6a38-40da-adbd-dc0eba1c88f0/relationships/trunk",
                    "related": "https://api.didww.com/v3/dids/a87e6b14-6a38-40da-adbd-dc0eba1c88f0/trunk"
                }
            },
            "trunk_group": {
                "links": {
                    "self": "https://api.didww.com/v3/dids/a87e6b14-6a38-40da-adbd-dc0eba1c88f0/relationships/trunk_group",
                    "related": "https://api.didww.com/v3/dids/a87e6b14-6a38-40da-adbd-dc0eba1c88f0/trunk_group"
                }
            },
            "capacity_pool": {
                "links": {
                    "self": "https://api.didww.com/v3/dids/a87e6b14-6a38-40da-adbd-dc0eba1c88f0/relationships/capacity_pool",
                    "related": "https://api.didww.com/v3/dids/a87e6b14-6a38-40da-adbd-dc0eba1c88f0/capacity_pool"
                }
            },
            "shared_capacity_group": {
                "links": {
                    "self": "https://api.didww.com/v3/dids/a87e6b14-6a38-40da-adbd-dc0eba1c88f0/relationships/shared_capacity_group",
                    "related": "https://api.didww.com/v3/dids/a87e6b14-6a38-40da-adbd-dc0eba1c88f0/shared_capacity_group"
                }
            }
        }
    }
}
