<?xml version="1.0" encoding="utf-8"?>
<!-- Generator: Adobe Illustrator 17.0.0, SVG Export Plug-In . SVG Version: 6.00 Build 0)  -->
<!DOCTYPE svg PUBLIC "-//W3C//DTD SVG 1.1//EN" "http://www.w3.org/Graphics/SVG/1.1/DTD/svg11.dtd">
<svg version="1.1" id="Capa_1" xmlns="http://www.w3.org/2000/svg" xmlns:xlink="http://www.w3.org/1999/xlink" x="0px" y="0px"
	 width="37px" height="54px" viewBox="0 0 37 54" enable-background="new 0 0 37 54" xml:space="preserve">
<path id="iPhone_8_1_" fill="#444444" d="M32.645,6h-15.32c-1.84,0-3.33,1.51-3.33,3.35v38.28c0,1.85,1.49,3.37,3.33,3.37h15.33
	c1.84,0,3.35-1.52,3.35-3.37V9.35C35.995,7.51,34.485,6,32.645,6z M23.495,8.5h3V9h-3V8.5z M34.995,46h-20V11h20V46z"/>
<circle fill="none" cx="9.745" cy="8.599" r="0.75"/>
<path fill="#444444" d="M14.597,6H4.325c-1.84,0-3.33,1.51-3.33,3.35v0.632h5.044C5.35,9.894,4.816,9.312,4.816,8.599
	c0-0.774,0.627-1.401,1.401-1.401c0.774,0,1.401,0.627,1.401,1.401c0,0.713-0.534,1.295-1.223,1.383h6.6V9.35
	C12.995,7.995,13.627,6.798,14.597,6z M9.745,9.349c-0.414,0-0.75-0.336-0.75-0.75c0-0.414,0.336-0.75,0.75-0.75
	s0.75,0.336,0.75,0.75C10.495,9.013,10.159,9.349,9.745,9.349z"/>
<rect x="0.995" y="10.383" fill="#444444" width="12" height="36.716"/>
<path fill="#444444" d="M12.995,47.63V47.5h-12v0.13c0,1.85,1.49,3.37,3.33,3.37h10.278C13.63,50.198,12.995,48.994,12.995,47.63z"
	/>
<g id="Dark">
</g>
<rect fill="none" width="37" height="54"/>
</svg>
